{
 "kind": "youtube#searchListResponse",
 "etag": "\"m2yskBQFythfE4irbTIeOgYYfBU/89cQF5NCpvchKgixs9CAbCpmFaU\"",
 "nextPageToken": "CAUQAA",
 "regionCode": "CZ",
 "pageInfo": {
  "totalResults": 1000000,
  "resultsPerPage": 5
 },
 "items": [
  {
   "kind": "youtube#searchResult",
   "etag": "\"m2yskBQFythfE4irbTIeOgYYfBU/MK6hGksLqCRmhVuWh3CVwi9RKds\"",
   "id": {
    "kind": "youtube#video",
    "videoId": "pa14VNsdSYM"
   },
   "snippet": {
    "publishedAt": "2010-10-12T22:31:11.000Z",
    "channelId": "UC2xskkQVFEpLcGFnNSLQY0A",
    "title": "Rihanna - Only Girl (In The World)",
    "description": "Get Rihanna's eighth ...",
    "thumbnails": {
     "default": {
      "url": "https://i.ytimg.com/vi/pa14VNsdSYM/default.jpg",
      "width": 120,
      "height": 90
     },
     "medium": {
      "url": "https://i.ytimg.com/vi/pa14VNsdSYM/mqdefault.jpg",
      "width": 320,
      "height": 180
     },
     "high": {
      "url": "https://i.ytimg.com/vi/pa14VNsdSYM/hqdefault.jpg",
      "width": 480,
      "height": 360
     }
    },
    "channelTitle": "RihannaVEVO",
    "liveBroadcastContent": "none"
   }
  },
  {
   "kind": "youtube#searchResult",
   "etag": "\"m2yskBQFythfE4irbTIeOgYYfBU/MK6hGksLqCRmhVuWh3CVwi9RKds\"",
   "id": {
    "kind": "youtube#video",
    "videoId": "A"
   },
   "snippet": {
    "publishedAt": "2010-10-12T22:31:11.000Z",
    "channelId": "UC2xskkQVFEpLcGFnNSLQY0A",
    "title": "Rihanna - Only Girl (In The World)",
    "description": "Get Rihanna's eighth ...",
    "thumbnails": {
     "default": {
      "url": "https://i.ytimg.com/vi/pa14VNsdSYM/default.jpg",
      "width": 120,
      "height": 90
     },
     "medium": {
      "url": "https://i.ytimg.com/vi/pa14VNsdSYM/mqdefault.jpg",
      "width": 320,
      "height": 180
     },
     "high": {
      "url": "https://i.ytimg.com/vi/pa14VNsdSYM/hqdefault.jpg",
      "width": 480,
      "height": 360
     }
    },
    "channelTitle": "RihannaVEVO",
    "liveBroadcastContent": "none"
   }
  },
  {
   "kind": "youtube#searchResult",
   "etag": "\"m2yskBQFythfE4irbTIeOgYYfBU/MK6hGksLqCRmhVuWh3CVwi9RKds\"",
   "id": {
    "kind": "youtube#video",
    "videoId": "B"
   },
   "snippet": {
    "publishedAt": "2010-10-12T22:31:11.000Z",
    "channelId": "UC2xskkQVFEpLcGFnNSLQY0A",
    "title": "Rihanna - Only Girl (In The World)",
    "description": "Get Rihanna's eighth ...",
    "thumbnails": {
     "default": {
      "url": "https://i.ytimg.com/vi/pa14VNsdSYM/default.jpg",
      "width": 120,
      "height": 90
     },
     "medium": {
      "url": "https://i.ytimg.com/vi/pa14VNsdSYM/mqdefault.jpg",
      "width": 320,
      "height": 180
     },
     "high": {
      "url": "https://i.ytimg.com/vi/pa14VNsdSYM/hqdefault.jpg",
      "width": 480,
      "height": 360
     }
    },
    "channelTitle": "RihannaVEVO",
    "liveBroadcastContent": "none"
   }
  }
 ]
}