{
 "kind": "youtube#videoListResponse",
 "etag": "\"m2yskBQFythfE4irbTIeOgYYfBU/mvdORdMYSmoESYqHCMXBXE1EV1o\"",
 "pageInfo": {
  "totalResults": 1,
  "resultsPerPage": 1
 },
 "items": [
  {
   "kind": "youtube#video",
   "etag": "\"m2yskBQFythfE4irbTIeOgYYfBU/3zsBd65zefiww0EHjDxRAm0p4JU\"",
   "id": "B",
   "statistics": {
    "viewCount": "500",
    "likeCount": "1394124",
    "dislikeCount": "65595",
    "favoriteCount": "0",
    "commentCount": "108251"
   }
  }
 ]
}